<?xml version="1.0" encoding="utf-8"?>
<!-- Generator: Adobe Illustrator 27.9.0, SVG Export Plug-In . SVG Version: 6.00 Build 0)  -->
<svg version="1.1" id="Layer_1" xmlns="http://www.w3.org/2000/svg" xmlns:xlink="http://www.w3.org/1999/xlink" x="0px" y="0px"
	 viewBox="0 0 400 95" style="enable-background:new 0 0 400 95;" xml:space="preserve">
<style type="text/css">
	.st0{fill:#18453B;}
</style>
<path class="st0" d="M0,18.1l1.5-1.7c2.2,2,4.3,3,7.2,3s4.6-1.5,4.6-3.6v-0.1c0-1.9-1-3-5.4-4c-4.8-1-7-2.6-7-6V5.7
	C0.8,2.4,3.7,0,7.7,0c3,0,5.2,0.9,7.3,2.6l-1.4,1.8c-1.9-1.6-3.9-2.3-6-2.3c-2.7,0-4.4,1.5-4.4,3.4v0.1c0,2,1.1,3.1,5.7,4.1
	c4.6,1,6.8,2.7,6.8,5.9v0.1c0,3.6-3,5.9-7.1,5.9C5.2,21.5,2.5,20.4,0,18.1L0,18.1z"/>
<path class="st0" d="M32.4,0.3h7.8c4.7,0,7.8,2.5,7.8,6.6V7c0,4.5-3.8,6.8-8.2,6.8h-5.1v7.4h-2.3C32.4,21.2,32.4,0.3,32.4,0.3z
	 M39.9,11.7c3.5,0,5.7-1.9,5.7-4.6V7c0-3-2.2-4.5-5.6-4.5h-5.3v9.2C34.7,11.7,39.9,11.7,39.9,11.7z"/>
<path class="st0" d="M69.8,0.2H72l9.5,21H79l-2.4-5.5H65.2l-2.5,5.5h-2.4L69.8,0.2z M75.6,13.5L70.9,2.9l-4.8,10.6
	C66.1,13.5,75.7,13.5,75.6,13.5z"/>
<path class="st0" d="M97.6,0.3h9c2.6,0,4.6,0.8,5.9,2.1c1,1,1.6,2.5,1.6,4.1v0.1c0,3.5-2.4,5.5-5.7,6.1l6.4,8.5H112l-6.1-8.1h-6v8.1
	h-2.3L97.6,0.3L97.6,0.3z M106.3,10.9c3.1,0,5.4-1.6,5.4-4.3V6.6c0-2.6-2-4.1-5.3-4.1h-6.4v8.5C99.9,10.9,106.3,10.9,106.3,10.9z"/>
<path class="st0" d="M136.4,2.5h-7V0.3h16.4v2.2h-7v18.7h-2.4L136.4,2.5L136.4,2.5z"/>
<path class="st0" d="M167.1,0.2h2.2l9.5,21h-2.5l-2.4-5.5h-11.4l-2.5,5.5h-2.4L167.1,0.2z M172.9,13.5l-4.7-10.6l-4.8,10.6H172.9
	L172.9,13.5z"/>
<path class="st0" d="M194.9,0.3h2.2L210.2,17V0.3h2.3v20.9h-1.9L197.2,4v17.1h-2.3L194.9,0.3L194.9,0.3z"/>
<path class="st0" d="M0,27h11.3c7.7,0,11.4,3.7,11.4,11.2v3.4c0,7.5-3.7,11.3-11.4,11.3H7.7v17H0V27z M11.3,46
	c2.6,0,3.7-1.2,3.7-4.2v-3.9c0-3.1-1.2-4.2-3.7-4.2H7.7V46H11.3z"/>
<path class="st0" d="M47.9,38.6v31.2h-6.4l-0.2-4.5c-1.1,3.2-3.7,5.2-7.2,5.2c-5,0-7.8-3.1-7.8-9.8V38.6h7.4v21c0,3,0.8,4.4,3.1,4.4
	s3.7-1.5,3.7-5.3V38.6L47.9,38.6L47.9,38.6z"/>
<path class="st0" d="M74.5,47.7v12.9c0,6.7-2.9,9.8-7.8,9.8c-3.6,0-6.3-2-7.4-5.4l-1.1,4.8h-5.4V27h7.4v14.4
	c1.4-2.2,3.7-3.4,6.5-3.4C71.6,38,74.5,41.1,74.5,47.7L74.5,47.7z M67.1,48.7c0-2.8-0.8-4.2-3.2-4.2c-2.3,0-3.7,1.5-3.7,5.3v9.1
	c0,3.7,1.5,5.3,3.7,5.3c2.4,0,3.2-1.5,3.2-4.2C67.1,59.8,67.1,48.7,67.1,48.7z"/>
<path class="st0" d="M78.9,27h7.4v42.9h-7.4C78.9,69.9,78.9,27,78.9,27z"/>
<path class="st0" d="M91.1,26.9h7.4v7.7h-7.4V26.9z M91.1,38.6h7.4v31.2h-7.4V38.6z"/>
<path class="st0" d="M102.8,59.7V48.8c0-6.9,3.9-10.8,10.8-10.8s10.5,4.2,10.5,10.8v1.4H117v-2c0-2.4-1-3.7-3.4-3.7
	s-3.4,1.3-3.4,3.7v12.1c0,2.3,1,3.7,3.4,3.7s3.4-1.4,3.4-3.7v-2.7h7.1v2.1c0,6.6-3.4,10.8-10.5,10.8S102.8,66.5,102.8,59.7
	L102.8,59.7z"/>
<path class="st0" d="M139.2,27h20.9v6.8h-13.2v10.6h10.5v6.8h-10.5v11.9h13.2v6.8h-20.9V27z"/>
<path class="st0" d="M185.5,47.7v22.1h-7.4V48.8c0-3-0.9-4.3-3.1-4.3s-3.7,1.5-3.7,5.3v20.2H164V38.6h6.4l0.1,4.5
	c1.2-3.2,3.7-5.1,7.3-5.1C182.8,38,185.5,41.1,185.5,47.7L185.5,47.7z"/>
<path class="st0" d="M211.3,38.6v30.9c0,6.3-2.4,10.5-10.9,10.5c-6.9,0-10.4-2.9-10.6-8.8h7.1c0.1,2,1.1,2.8,3.4,2.8
	c2.6,0,3.7-1.2,3.7-4.2v-4.7c-1.4,2.2-3.6,3.4-6.5,3.4c-5,0-7.8-3.1-7.8-9.7v-11c0-6.6,2.9-9.7,7.8-9.7c3.6,0,6.2,1.9,7.3,5.2
	l0.2-4.6L211.3,38.6L211.3,38.6z M204,56.8v-7.1c0-3.7-1.5-5.3-3.8-5.3s-3.2,1.5-3.2,4.2v9.2c0,2.8,0.8,4.2,3.2,4.2
	S204,60.5,204,56.8z"/>
<path class="st0" d="M230.8,69.9c-0.2-0.3-0.5-2-0.6-4.5c-1.2,3.2-3.7,5.1-7.4,5.1c-4.7,0-7.7-3.1-7.7-8.1s2-8,8.3-10.2
	c5.3-1.8,6-2.5,6-4.2v-0.3c0-2.5-0.9-3.5-3-3.5c-2.4,0-3.3,1.4-3.3,3.9v0.6h-6.9v-0.4c0-6.4,3.6-10.2,10.3-10.2
	c7.5,0,10.3,3.9,10.3,11.2v11.4c0,4.7,0.4,7.5,0.9,9.3H230.8L230.8,69.9z M229.4,58.9V55c-0.7,0.5-1.8,1.2-3.7,2
	c-2.4,1-3.3,2.5-3.3,4.2c0,2,0.9,3.1,3,3.1C227.7,64.3,229.4,62.6,229.4,58.9L229.4,58.9z"/>
<path class="st0" d="M262.5,38.6v30.9c0,6.3-2.5,10.5-10.9,10.5c-6.9,0-10.4-2.9-10.6-8.8h7.1c0.1,2,1.1,2.8,3.4,2.8
	c2.6,0,3.7-1.2,3.7-4.2v-4.7c-1.4,2.2-3.6,3.4-6.5,3.4c-5,0-7.8-3.1-7.8-9.7v-11c0-6.6,2.9-9.7,7.8-9.7c3.6,0,6.2,1.9,7.3,5.2
	l0.2-4.6L262.5,38.6L262.5,38.6z M255.1,56.8v-7.1c0-3.7-1.5-5.3-3.8-5.3s-3.2,1.5-3.2,4.2v9.2c0,2.8,0.8,4.2,3.2,4.2
	S255.1,60.5,255.1,56.8z"/>
<path class="st0" d="M288.6,48.8V56h-14.5v4.4c0,2.6,1.2,3.8,3.7,3.8s3.7-1.2,3.7-3.9v-0.6h7.1V60c0,6.6-3.9,10.5-10.9,10.5
	s-11-3.9-11-10.8V48.9c0-7,3.9-10.8,11-10.8S288.6,41.9,288.6,48.8L288.6,48.8z M281.3,50.4V48c0-2.6-1.3-3.7-3.6-3.7
	s-3.6,1.2-3.6,3.7v2.5H281.3L281.3,50.4z"/>
<path class="st0" d="M328.2,47.7v22.1h-7.4V48.7c0-2.5-0.5-4.2-3.1-4.2c-2.3,0-3.5,1.5-3.5,5.3v20.2h-7.4V48.7c0-2.6-0.6-4.2-3-4.2
	s-3.6,1.5-3.6,5.3v20.2h-7.4V38.6h6.4l0.1,4.5c1.2-3.2,3.7-5.1,7.2-5.1s5.8,1.6,7,4.8c1.2-3.1,3.7-4.8,7-4.8
	C325.4,38,328.2,41.1,328.2,47.7L328.2,47.7z"/>
<path class="st0" d="M354.2,48.8V56h-14.5v4.4c0,2.6,1.2,3.8,3.7,3.8s3.7-1.2,3.7-3.9v-0.6h7.1V60c0,6.6-3.9,10.5-10.9,10.5
	s-11-3.9-11-10.8V48.9c0-7,3.9-10.8,11-10.8S354.2,41.9,354.2,48.8L354.2,48.8z M346.9,50.4V48c0-2.6-1.3-3.7-3.6-3.7
	s-3.6,1.2-3.6,3.7v2.5H346.9L346.9,50.4z"/>
<path class="st0" d="M379.9,47.7v22.1h-7.4V48.8c0-3-0.9-4.3-3.1-4.3s-3.7,1.5-3.7,5.3v20.2h-7.4V38.6h6.4l0.1,4.5
	c1.2-3.2,3.7-5.1,7.3-5.1C377.1,38,379.8,41.1,379.9,47.7L379.9,47.7z"/>
<path class="st0" d="M394.6,44.7v16.1c0,2.2,0.8,3.1,2.9,3.1c0.7,0,1.6-0.1,2.5-0.4v6.3c-1.3,0.6-2.5,0.7-4,0.7
	c-5.9,0-8.7-2.9-8.7-8.6V44.7h-4v-6.1h4.3l0.6-8.2h6.5v8.2h5.4v6.1L394.6,44.7L394.6,44.7z"/>
<path class="st0" d="M269.1,74.1h2.4l7.6,11.4l7.6-11.4h2.4V95h-2.4V78.1l-7.6,11.2H279l-7.6-11.2V95h-2.3L269.1,74.1L269.1,74.1z"
	/>
<path class="st0" d="M311.6,74h2.2l9.5,21h-2.5l-2.4-5.5H307l-2.5,5.5h-2.4L311.6,74L311.6,74z M317.5,87.3l-4.7-10.6L308,87.3
	H317.5L317.5,87.3z"/>
<path class="st0" d="M336.4,74.1h7.8c4.7,0,7.8,2.5,7.8,6.6v0.1c0,4.5-3.8,6.8-8.2,6.8h-5.1V95h-2.4L336.4,74.1L336.4,74.1z
	 M343.9,85.5c3.5,0,5.7-1.8,5.7-4.6v-0.1c0-3-2.2-4.5-5.6-4.5h-5.3v9.2L343.9,85.5L343.9,85.5z"/>
</svg>
